<?xml version="1.0" encoding="UTF-8" standalone="no"?>
<!-- Created with Inkscape (http://www.inkscape.org/) -->
<svg id="svg3397" xmlns:rdf="http://www.w3.org/1999/02/22-rdf-syntax-ns#" xmlns="http://www.w3.org/2000/svg" height="48" viewBox="0 0 48 48" width="48" version="1.1" xmlns:cc="http://creativecommons.org/ns#" xmlns:dc="http://purl.org/dc/elements/1.1/">
 <metadata id="metadata3402">
  <rdf:RDF>
   <cc:Work rdf:about="">
    <dc:format>image/svg+xml</dc:format>
    <dc:type rdf:resource="http://purl.org/dc/dcmitype/StillImage"/>
    <dc:title/>
   </cc:Work>
  </rdf:RDF>
 </metadata>
 <g id="layer1" stroke="#000">
  <g fill-rule="evenodd" fill-opacity=".78325" fill="#f55">
   <path id="path5442" d="m0.77252 10.055v11.742l7.5374-7.288-2.5125 20.65 5.9916 5.467-2.5128-26.117 10.243 5.466-3.092-10.527-7.5374 2.632z" stroke-width=".15334px"/>
   <path id="path5444" d="m21.484 9.2263-4.2923 32.836 7.0238-13.783 2.8615 4.6619 0.78042-4.6619 4.8126 12.77-4.4224-23.917-2.4713 6.8914z" stroke-width=".12587px"/>
   <path id="path5446" d="m33.068 14.511 11.568-4.0787-7.2608 24.658 4.7995-6.1181 3.0766 8.5282-12.429 3.1517 7.753-24.843-4.0611 4.4495z" stroke-width=".11709px"/>
  </g>
  <path id="path5450" d="m348.3 495.08c0.51742 4.3335-5.5861 2.8355-7.2025 0.86-4.3802-5.3534 0.11426-12.822 5.4825-15.265 9.6025-4.3692 20.171 2.548 23.327 11.825 4.632 13.614-4.9815 27.646-18.167 31.39-17.575 4.9904-35.168-7.4106-39.452-24.51-5.391-21.518 9.8366-42.715 30.852-47.515 25.453-5.8135 50.275 12.26 55.577 37.195 6.2488 29.384-14.683 57.843-43.537 63.64-33.313 6.6923-65.417-17.105-71.702-49.88-7.1413-37.241 19.526-72.996 56.222-79.765 41.168-7.5941 80.577 21.947 87.827 62.565 8.0497 45.094-24.367 88.16-68.907 95.89-49.019 8.5075-95.744-26.788-103.95-75.25-8.9669-52.944 29.208-103.33 81.592-112.01 56.869-9.4276 110.92 31.627 120.08 87.935 9.8893 60.794-34.047 118.51-94.277 128.14-64.718 10.352-126.09-36.467-136.2-100.62-10.815-68.643 38.887-133.68 106.96-144.26 72.567-11.279 141.27 41.306 152.33 113.3 11.743 76.491-43.726 148.86-119.65 160.39-80.42 12.21-156.46-46.14-168.45-125.99-12.68-84.34 48.56-164.04 132.33-176.51 88.263-13.138 171.64 50.984 184.58 138.67 13.604 92.187-53.403 179.23-145.02 192.64-96.11 14.07-186.82-55.82-200.7-151.36-14.54-100.03 58.24-194.41 157.7-208.76 103.96-15 202 60.66 216.83 164.04 15.47 107.89-63.08 209.6-170.39 224.89-111.81 15.94-217.19-65.5-232.95-176.73-16.4-115.73 67.92-224.78 183.07-241.01 119.65-16.87 232.37 70.34 249.08 189.41 17.33 123.58-72.76 239.97-195.76 257.14-127.5 17.81-247.56-75.17-265.2-202.1-18.273-131.42 77.59-255.15 208.44-273.26 135.35-18.737 262.74 80.015 281.33 214.78 1.4503 10.518 2.2398 21.126 2.3639 31.742" transform="matrix(.096375 0 0 .099678 -10.278 -24.525)" stroke-width="1px" fill="none"/>
 </g>
</svg>
